%YAML 1.1
%TAG !u! tag:unity3d.com,2011:
--- !u!1045 &1
EditorBuildSettings:
  m_ObjectHideFlags: 0
  serializedVersion: 2
  m_Scenes:
  - enabled: 1
    path: Assets/Scenes/Level 1.unity
    guid: 8750595a8e502b7498c0d9186ca4e09d
  - enabled: 1
    path: Assets/Scenes/Level 2.unity
    guid: 306f461841fec2d48a3671149f00ef6d
  - enabled: 1
    path: Assets/Scenes/Level 3.unity
    guid: 790650b2d26ba084189a554eb09378b5
  - enabled: 1
    path: Assets/Scenes/Level 4.unity
    guid: 971d6eba20ebbee47a2bb82d6073e639
  - enabled: 1
    path: Assets/Scenes/Level 5.unity
    guid: a08b0831236eabd4cb18054a1af297b8
